^C:\USERS\P30852\SOURCE\REPOS\MANDELBROTFRACTAL\MANDELBROTFRACTAL\PCH.CPP
C:\USERS\P30852\SOURCE\REPOS\MANDELBROTFRACTAL\MANDELBROTFRACTAL\DEBUG\MANDELBROTFRACTAL.PCH
C:\USERS\P30852\SOURCE\REPOS\MANDELBROTFRACTAL\MANDELBROTFRACTAL\DEBUG\VC141.PDB
C:\USERS\P30852\SOURCE\REPOS\MANDELBROTFRACTAL\MANDELBROTFRACTAL\DEBUG\VC141.IDB
C:\USERS\P30852\SOURCE\REPOS\MANDELBROTFRACTAL\MANDELBROTFRACTAL\DEBUG\PCH.OBJ
C:\USERS\P30852\SOURCE\REPOS\MANDELBROTFRACTAL\MANDELBROTFRACTAL\DEBUG\VC140.PDB
C:\USERS\P30852\SOURCE\REPOS\MANDELBROTFRACTAL\MANDELBROTFRACTAL\DEBUG\VC140.IDB
^C:\USERS\P30852\SOURCE\REPOS\MANDELBROTFRACTAL\MANDELBROTFRACTAL\MANDELBROTFRACTAL.CPP
C:\USERS\P30852\SOURCE\REPOS\MANDELBROTFRACTAL\MANDELBROTFRACTAL\DEBUG\VC141.PDB
C:\USERS\P30852\SOURCE\REPOS\MANDELBROTFRACTAL\MANDELBROTFRACTAL\DEBUG\VC141.IDB
C:\USERS\P30852\SOURCE\REPOS\MANDELBROTFRACTAL\MANDELBROTFRACTAL\DEBUG\MANDELBROTFRACTAL.OBJ
